%YAML 1.1
%TAG !u! tag:unity3d.com,2011:
--- !u!114 &-1058453746660324912
MonoBehaviour:
  m_ObjectHideFlags: 3
  m_CorrespondingSourceObject: {fileID: 0}
  m_PrefabInstance: {fileID: 0}
  m_PrefabAsset: {fileID: 0}
  m_GameObject: {fileID: 0}
  m_Enabled: 1
  m_EditorHideFlags: 0
  m_Script: {fileID: 11500000, guid: 899c54efeace73346a0a16faa3afe726, type: 3}
  m_Name: Vignette
  m_EditorClassIdentifier: 
  active: 1
  color:
    m_OverrideState: 1
    m_Value: {r: 0, g: 0, b: 0, a: 1}
  center:
    m_OverrideState: 1
    m_Value: {x: 0.5, y: 0.5}
  intensity:
    m_OverrideState: 1
    m_Value: 0.339
  smoothness:
    m_OverrideState: 1
    m_Value: 0.01
  rounded:
    m_OverrideState: 1
    m_Value: 1
--- !u!114 &11400000
MonoBehaviour:
  m_ObjectHideFlags: 0
  m_CorrespondingSourceObject: {fileID: 0}
  m_PrefabInstance: {fileID: 0}
  m_PrefabAsset: {fileID: 0}
  m_GameObject: {fileID: 0}
  m_Enabled: 1
  m_EditorHideFlags: 0
  m_Script: {fileID: 11500000, guid: d7fd9488000d3734a9e00ee676215985, type: 3}
  m_Name: Global Volume (1) Profile 1
  m_EditorClassIdentifier: 
  components:
  - {fileID: 8554577361592431118}
  - {fileID: -1058453746660324912}
  - {fileID: 6399484416078213976}
  - {fileID: 1268422014320880752}
--- !u!114 &1268422014320880752
MonoBehaviour:
  m_ObjectHideFlags: 3
  m_CorrespondingSourceObject: {fileID: 0}
  m_PrefabInstance: {fileID: 0}
  m_PrefabAsset: {fileID: 0}
  m_GameObject: {fileID: 0}
  m_Enabled: 1
  m_EditorHideFlags: 0
  m_Script: {fileID: 11500000, guid: 70afe9e12c7a7ed47911bb608a23a8ff, type: 3}
  m_Name: SplitToning
  m_EditorClassIdentifier: 
  active: 1
  shadows:
    m_OverrideState: 1
    m_Value: {r: 0.20754719, g: 0.18894626, b: 0.18894626, a: 1}
  highlights:
    m_OverrideState: 1
    m_Value: {r: 0.23584908, g: 0.20358671, b: 0.20358671, a: 1}
  balance:
    m_OverrideState: 1
    m_Value: -100
--- !u!114 &6399484416078213976
MonoBehaviour:
  m_ObjectHideFlags: 3
  m_CorrespondingSourceObject: {fileID: 0}
  m_PrefabInstance: {fileID: 0}
  m_PrefabAsset: {fileID: 0}
  m_GameObject: {fileID: 0}
  m_Enabled: 1
  m_EditorHideFlags: 0
  m_Script: {fileID: 11500000, guid: 66f335fb1ffd8684294ad653bf1c7564, type: 3}
  m_Name: ColorAdjustments
  m_EditorClassIdentifier: 
  active: 1
  postExposure:
    m_OverrideState: 1
    m_Value: 0
  contrast:
    m_OverrideState: 1
    m_Value: 50
  colorFilter:
    m_OverrideState: 1
    m_Value: {r: 0.8773585, g: 0.79045033, b: 0.79045033, a: 1}
  hueShift:
    m_OverrideState: 1
    m_Value: 0
  saturation:
    m_OverrideState: 0
    m_Value: 0
--- !u!114 &8554577361592431118
MonoBehaviour:
  m_ObjectHideFlags: 3
  m_CorrespondingSourceObject: {fileID: 0}
  m_PrefabInstance: {fileID: 0}
  m_PrefabAsset: {fileID: 0}
  m_GameObject: {fileID: 0}
  m_Enabled: 1
  m_EditorHideFlags: 0
  m_Script: {fileID: 11500000, guid: 0b2db86121404754db890f4c8dfe81b2, type: 3}
  m_Name: Bloom
  m_EditorClassIdentifier: 
  active: 1
  threshold:
    m_OverrideState: 1
    m_Value: 2.49
  intensity:
    m_OverrideState: 1
    m_Value: 81.65
  scatter:
    m_OverrideState: 1
    m_Value: 0
  clamp:
    m_OverrideState: 1
    m_Value: 65472
  tint:
    m_OverrideState: 1
    m_Value: {r: 1, g: 1, b: 1, a: 1}
  highQualityFiltering:
    m_OverrideState: 1
    m_Value: 0
  skipIterations:
    m_OverrideState: 1
    m_Value: 2
  dirtTexture:
    m_OverrideState: 0
    m_Value: {fileID: 0}
  dirtIntensity:
    m_OverrideState: 0
    m_Value: 0
